Suite/Test/Step Name,Browser,Description,Start time,End time,Duration,Status
2_Checking Body,,,2018-07-04 16:00:14,2018-07-04 16:00:37,"23,242s",FAILED
,,,,,,
Test Cases/GIVEN/1_Open_Index,,,2018-07-04 16:00:15,2018-07-04 16:00:36,"20,908s",FAILED
openBrowser,,,2018-07-04 16:00:16,2018-07-04 16:00:36,"20,158s",FAILED
,,,,,,
Test Cases/GIVEN/2_ Store_Select,,,2018-07-04 16:00:36,2018-07-04 16:00:37,"0,889s",FAILED
click,,,2018-07-04 16:00:37,2018-07-04 16:00:37,"0,069s",FAILED
,,,,,,
Test Cases/GIVEN/Home Page/2_Body/8_Click_Previously_Purshased,,,2018-07-04 16:00:37,2018-07-04 16:00:37,"0,446s",FAILED
click,,,2018-07-04 16:00:37,2018-07-04 16:00:37,"0,024s",FAILED
