Suite/Test/Step Name,Browser,Description,Start time,End time,Duration,Status
3_Checking Category Menu,Chrome 67.0.3396.87,,2018-06-27 17:15:24,2018-06-27 17:16:14,"49,148s",PASSED
,,,,,,
Test Cases/GIVEN/1_Open_Index,Chrome 67.0.3396.87,,2018-06-27 17:15:25,2018-06-27 17:15:36,"10,721s",PASSED
openBrowser,Chrome 67.0.3396.87,,2018-06-27 17:15:26,2018-06-27 17:15:29,"3,020s",PASSED
maximizeWindow,Chrome 67.0.3396.87,,2018-06-27 17:15:29,2018-06-27 17:15:29,"0,388s",PASSED
navigateToUrl,Chrome 67.0.3396.87,,2018-06-27 17:15:29,2018-06-27 17:15:36,"6,875s",PASSED
,,,,,,
Test Cases/GIVEN/2_ Store_Select,Chrome 67.0.3396.87,,2018-06-27 17:15:36,2018-06-27 17:15:42,"6,147s",PASSED
click,Chrome 67.0.3396.87,,2018-06-27 17:15:37,2018-06-27 17:15:42,"5,539s",PASSED
waitForElementPresent,Chrome 67.0.3396.87,,2018-06-27 17:15:42,2018-06-27 17:15:42,"0,078s",PASSED
,,,,,,
Test Cases/GIVEN/Home Page/1_Header/3_Category Menu/Click_categories,Chrome 67.0.3396.87,,2018-06-27 17:15:42,2018-06-27 17:16:11,"28,840s",PASSED
click,Chrome 67.0.3396.87,,2018-06-27 17:15:42,2018-06-27 17:15:44,"1,879s",PASSED
click,Chrome 67.0.3396.87,,2018-06-27 17:15:44,2018-06-27 17:15:47,"2,904s",PASSED
click,Chrome 67.0.3396.87,,2018-06-27 17:15:47,2018-06-27 17:15:50,"2,353s",PASSED
click,Chrome 67.0.3396.87,,2018-06-27 17:15:50,2018-06-27 17:15:51,"1,562s",PASSED
click,Chrome 67.0.3396.87,,2018-06-27 17:15:51,2018-06-27 17:15:54,"3,174s",PASSED
click,Chrome 67.0.3396.87,,2018-06-27 17:15:54,2018-06-27 17:15:57,"2,566s",PASSED
click,Chrome 67.0.3396.87,,2018-06-27 17:15:57,2018-06-27 17:16:04,"7,165s",PASSED
click,Chrome 67.0.3396.87,,2018-06-27 17:16:04,2018-06-27 17:16:08,"4,429s",PASSED
click,Chrome 67.0.3396.87,,2018-06-27 17:16:08,2018-06-27 17:16:11,"2,599s",PASSED
,,,,,,
Test Cases/GIVEN/Home Page/Click_Logo,Chrome 67.0.3396.87,,2018-06-27 17:16:11,2018-06-27 17:16:12,"1,439s",PASSED
click,Chrome 67.0.3396.87,,2018-06-27 17:16:11,2018-06-27 17:16:12,"1,266s",PASSED
