Suite/Test/Step Name,Browser,Description,Start time,End time,Duration,Status
2_Checking Body,,,2018-07-04 17:40:45,2018-07-04 17:41:35,"49,886s",FAILED
,,,,,,
Test Cases/GIVEN/1_Open_Index,,,2018-07-04 17:40:46,2018-07-04 17:41:34,"47,637s",FAILED
openBrowser,,,2018-07-04 17:40:47,2018-07-04 17:41:34,"46,248s",FAILED
,,,,,,
Test Cases/GIVEN/2_ Store_Select,,,2018-07-04 17:41:34,2018-07-04 17:41:35,"0,787s",FAILED
click,,,2018-07-04 17:41:34,2018-07-04 17:41:35,"0,111s",FAILED
,,,,,,
Test Cases/GIVEN/Home Page/2_Body/8_Click_Previously_Purshased,,,2018-07-04 17:41:35,2018-07-04 17:41:35,"0,473s",FAILED
click,,,2018-07-04 17:41:35,2018-07-04 17:41:35,"0,027s",FAILED
