Suite/Test/Step Name,Browser,Description,Start time,End time,Duration,Status
2_Checking Body,Chrome 67.0.3396.99,,2018-07-04 17:12:50,2018-07-04 17:13:51,"1m - 0,516s",PASSED
,,,,,,
Test Cases/GIVEN/1_Open_Index,Chrome 67.0.3396.99,,2018-07-04 17:12:51,2018-07-04 17:13:01,"10,319s",PASSED
openBrowser,Chrome 67.0.3396.99,,2018-07-04 17:12:51,2018-07-04 17:12:54,"3,348s",PASSED
maximizeWindow,Chrome 67.0.3396.99,,2018-07-04 17:12:54,2018-07-04 17:12:55,"0,420s",PASSED
navigateToUrl,Chrome 67.0.3396.99,,2018-07-04 17:12:55,2018-07-04 17:13:01,"6,095s",PASSED
,,,,,,
Test Cases/GIVEN/2_ Store_Select,Chrome 67.0.3396.99,,2018-07-04 17:13:01,2018-07-04 17:13:06,"4,697s",PASSED
click,Chrome 67.0.3396.99,,2018-07-04 17:13:01,2018-07-04 17:13:06,"4,251s",PASSED
waitForElementPresent,Chrome 67.0.3396.99,,2018-07-04 17:13:06,2018-07-04 17:13:06,"0,079s",PASSED
,,,,,,
Test Cases/GIVEN/Home Page/2_Body/1_Click_Banners,Chrome 67.0.3396.99,,2018-07-04 17:13:06,2018-07-04 17:13:12,"5,958s",PASSED
click,Chrome 67.0.3396.99,Household Essentials,2018-07-04 17:13:06,2018-07-04 17:13:07,"0,749s",PASSED
click,Chrome 67.0.3396.99,,2018-07-04 17:13:07,2018-07-04 17:13:08,"1,829s",PASSED
verifyTextPresent,Chrome 67.0.3396.99,,2018-07-04 17:13:08,2018-07-04 17:13:10,"1,723s",PASSED
callTestCase,Chrome 67.0.3396.99,,2018-07-04 17:13:10,2018-07-04 17:13:12,"1,460s",PASSED
,,,,,,
Test Cases/GIVEN/Home Page/2_Body/2_Click_Explore_More,Chrome 67.0.3396.99,,2018-07-04 17:13:12,2018-07-04 17:13:15,"3,792s",PASSED
click,Chrome 67.0.3396.99,,2018-07-04 17:13:12,2018-07-04 17:13:14,"2,088s",PASSED
verifyTextPresent,Chrome 67.0.3396.99,,2018-07-04 17:13:14,2018-07-04 17:13:14,"0,260s",PASSED
callTestCase,Chrome 67.0.3396.99,,2018-07-04 17:13:14,2018-07-04 17:13:15,"1,107s",PASSED
,,,,,,
Test Cases/GIVEN/Home Page/2_Body/3_Click_Products_On_Sale,Chrome 67.0.3396.99,,2018-07-04 17:13:15,2018-07-04 17:13:21,"5,892s",PASSED
delay,Chrome 67.0.3396.99,,2018-07-04 17:13:16,2018-07-04 17:13:18,"2,058s",PASSED
click,Chrome 67.0.3396.99,,2018-07-04 17:13:18,2018-07-04 17:13:19,"0,995s",PASSED
verifyTextPresent,Chrome 67.0.3396.99,,2018-07-04 17:13:19,2018-07-04 17:13:19,"0,468s",PASSED
callTestCase,Chrome 67.0.3396.99,,2018-07-04 17:13:19,2018-07-04 17:13:21,"2,091s",PASSED
,,,,,,
Test Cases/GIVEN/Home Page/2_Body/4_Click_Organic_Products,Chrome 67.0.3396.99,,2018-07-04 17:13:21,2018-07-04 17:13:27,"5,659s",PASSED
click,Chrome 67.0.3396.99,,2018-07-04 17:13:21,2018-07-04 17:13:24,"2,397s",PASSED
verifyTextPresent,Chrome 67.0.3396.99,,2018-07-04 17:13:24,2018-07-04 17:13:25,"1,536s",PASSED
callTestCase,Chrome 67.0.3396.99,,2018-07-04 17:13:25,2018-07-04 17:13:27,"1,570s",PASSED
,,,,,,
Test Cases/GIVEN/Home Page/2_Body/5_Click_New_Products,Chrome 67.0.3396.99,,2018-07-04 17:13:27,2018-07-04 17:13:31,"4,075s",PASSED
click,Chrome 67.0.3396.99,,2018-07-04 17:13:27,2018-07-04 17:13:29,"1,841s",PASSED
verifyTextPresent,Chrome 67.0.3396.99,,2018-07-04 17:13:29,2018-07-04 17:13:30,"0,507s",PASSED
callTestCase,Chrome 67.0.3396.99,,2018-07-04 17:13:30,2018-07-04 17:13:31,"1,488s",PASSED
,,,,,,
Test Cases/GIVEN/Home Page/2_Body/6_Click_Yellow_Coupons,Chrome 67.0.3396.99,,2018-07-04 17:13:31,2018-07-04 17:13:35,"3,973s",PASSED
click,Chrome 67.0.3396.99,,2018-07-04 17:13:31,2018-07-04 17:13:33,"1,785s",PASSED
verifyTextPresent,Chrome 67.0.3396.99,,2018-07-04 17:13:33,2018-07-04 17:13:34,"0,415s",PASSED
callTestCase,Chrome 67.0.3396.99,,2018-07-04 17:13:34,2018-07-04 17:13:35,"1,427s",PASSED
,,,,,,
Test Cases/GIVEN/Home Page/2_Body/7_Click_Gluten_Free_Products,Chrome 67.0.3396.99,,2018-07-04 17:13:35,2018-07-04 17:13:41,"5,934s",PASSED
click,Chrome 67.0.3396.99,,2018-07-04 17:13:35,2018-07-04 17:13:38,"2,452s",PASSED
verifyTextPresent,Chrome 67.0.3396.99,,2018-07-04 17:13:38,2018-07-04 17:13:39,"1,536s",PASSED
callTestCase,Chrome 67.0.3396.99,,2018-07-04 17:13:39,2018-07-04 17:13:41,"1,686s",PASSED
,,,,,,
Test Cases/GIVEN/Home Page/2_Body/8_Click_Previously_Purshased,Chrome 67.0.3396.99,,2018-07-04 17:13:41,2018-07-04 17:13:44,"3,337s",PASSED
click,Chrome 67.0.3396.99,,2018-07-04 17:13:41,2018-07-04 17:13:42,"0,702s",PASSED
delay,Chrome 67.0.3396.99,,2018-07-04 17:13:42,2018-07-04 17:13:44,"2,002s",PASSED
verifyTextPresent,Chrome 67.0.3396.99,,2018-07-04 17:13:44,2018-07-04 17:13:44,"0,286s",PASSED
click,Chrome 67.0.3396.99,,2018-07-04 17:13:44,2018-07-04 17:13:44,"0,133s",PASSED
,,,,,,
Test Cases/GIVEN/Home Page/2_Body/9_Click_Local_Products,Chrome 67.0.3396.99,,2018-07-04 17:13:44,2018-07-04 17:13:50,"5,251s",PASSED
click,Chrome 67.0.3396.99,,2018-07-04 17:13:44,2018-07-04 17:13:46,"1,594s",PASSED
verifyTextPresent,Chrome 67.0.3396.99,,2018-07-04 17:13:46,2018-07-04 17:13:48,"1,581s",PASSED
callTestCase,Chrome 67.0.3396.99,,2018-07-04 17:13:48,2018-07-04 17:13:50,"1,899s",PASSED
