Suite/Test/Step Name,Browser,Description,Start time,End time,Duration,Status
4_Checking Body,Chrome 67.0.3396.99,,2018-06-28 12:48:30,2018-06-28 12:48:51,"20,427s",PASSED
,,,,,,
Test Cases/GIVEN/1_Open_Index,Chrome 67.0.3396.99,,2018-06-28 12:48:31,2018-06-28 12:48:41,"10,321s",PASSED
openBrowser,Chrome 67.0.3396.99,,2018-06-28 12:48:32,2018-06-28 12:48:35,"3,325s",PASSED
maximizeWindow,Chrome 67.0.3396.99,,2018-06-28 12:48:35,2018-06-28 12:48:36,"0,483s",PASSED
navigateToUrl,Chrome 67.0.3396.99,,2018-06-28 12:48:36,2018-06-28 12:48:41,"5,812s",PASSED
,,,,,,
Test Cases/GIVEN/2_ Store_Select,Chrome 67.0.3396.99,,2018-06-28 12:48:41,2018-06-28 12:48:46,"4,539s",PASSED
click,Chrome 67.0.3396.99,,2018-06-28 12:48:42,2018-06-28 12:48:46,"4,181s",PASSED
waitForElementPresent,Chrome 67.0.3396.99,,2018-06-28 12:48:46,2018-06-28 12:48:46,"0,085s",PASSED
,,,,,,
Test Cases/GIVEN/Home Page/2_Body/New Test Case,Chrome 67.0.3396.99,,2018-06-28 12:48:46,2018-06-28 12:48:50,"3,920s",PASSED
click,Chrome 67.0.3396.99,,2018-06-28 12:48:46,2018-06-28 12:48:49,"2,361s",PASSED
click,Chrome 67.0.3396.99,,2018-06-28 12:48:49,2018-06-28 12:48:50,"1,273s",PASSED
