Suite/Test/Step Name,Browser,Description,Start time,End time,Duration,Status
2_Checking Body,Chrome 67.0.3396.99,,2018-07-04 15:46:00,2018-07-04 15:46:26,"26,448s",FAILED
,,,,,,
Test Cases/GIVEN/1_Open_Index,Chrome 67.0.3396.99,,2018-07-04 15:46:01,2018-07-04 15:46:11,"10,649s",PASSED
openBrowser,Chrome 67.0.3396.99,,2018-07-04 15:46:01,2018-07-04 15:46:04,"3,283s",PASSED
maximizeWindow,Chrome 67.0.3396.99,,2018-07-04 15:46:04,2018-07-04 15:46:05,"0,354s",PASSED
navigateToUrl,Chrome 67.0.3396.99,,2018-07-04 15:46:05,2018-07-04 15:46:11,"6,621s",PASSED
,,,,,,
Test Cases/GIVEN/2_ Store_Select,Chrome 67.0.3396.99,,2018-07-04 15:46:11,2018-07-04 15:46:22,"10,691s",PASSED
click,Chrome 67.0.3396.99,,2018-07-04 15:46:11,2018-07-04 15:46:22,"10,340s",PASSED
waitForElementPresent,Chrome 67.0.3396.99,,2018-07-04 15:46:22,2018-07-04 15:46:22,"0,079s",PASSED
,,,,,,
Test Cases/GIVEN/Home Page/2_Body/1_Click_Banners,Chrome 67.0.3396.99,,2018-07-04 15:46:22,2018-07-04 15:46:26,"3,695s",FAILED
click,Chrome 67.0.3396.99,Household Essentials,2018-07-04 15:46:22,2018-07-04 15:46:22,"0,278s",PASSED
click,Chrome 67.0.3396.99,,2018-07-04 15:46:22,2018-07-04 15:46:24,"1,555s",PASSED
click,Chrome 67.0.3396.99,,2018-07-04 15:46:24,2018-07-04 15:46:26,"1,575s",FAILED
