Suite/Test/Step Name,Browser,Description,Start time,End time,Duration,Status
2_Checking Body,Chrome 67.0.3396.99,,2018-07-04 12:38:17,2018-07-04 12:39:13,"56,271s",FAILED
,,,,,,
Test Cases/GIVEN/1_Open_Index,Chrome 67.0.3396.99,,2018-07-04 12:38:17,2018-07-04 12:38:27,"10,153s",PASSED
openBrowser,Chrome 67.0.3396.99,,2018-07-04 12:38:18,2018-07-04 12:38:21,"3,248s",PASSED
maximizeWindow,Chrome 67.0.3396.99,,2018-07-04 12:38:21,2018-07-04 12:38:21,"0,400s",PASSED
navigateToUrl,Chrome 67.0.3396.99,,2018-07-04 12:38:21,2018-07-04 12:38:27,"6,097s",PASSED
,,,,,,
Test Cases/GIVEN/2_ Store_Select,Chrome 67.0.3396.99,,2018-07-04 12:38:27,2018-07-04 12:38:34,"6,341s",PASSED
click,Chrome 67.0.3396.99,,2018-07-04 12:38:28,2018-07-04 12:38:34,"5,917s",PASSED
waitForElementPresent,Chrome 67.0.3396.99,,2018-07-04 12:38:34,2018-07-04 12:38:34,"0,061s",PASSED
,,,,,,
Test Cases/GIVEN/Home Page/2_Body/1_Click_Banners,Chrome 67.0.3396.99,,2018-07-04 12:38:34,2018-07-04 12:38:39,"5,326s",PASSED
click,Chrome 67.0.3396.99,Household Essentials,2018-07-04 12:38:34,2018-07-04 12:38:34,"0,491s",PASSED
click,Chrome 67.0.3396.99,,2018-07-04 12:38:34,2018-07-04 12:38:36,"1,862s",PASSED
click,Chrome 67.0.3396.99,,2018-07-04 12:38:36,2018-07-04 12:38:37,"0,943s",PASSED
callTestCase,Chrome 67.0.3396.99,,2018-07-04 12:38:37,2018-07-04 12:38:39,"1,838s",PASSED
,,,,,,
Test Cases/GIVEN/Home Page/2_Body/2_Click_Explore_More,Chrome 67.0.3396.99,,2018-07-04 12:38:39,2018-07-04 12:38:44,"5,395s",PASSED
click,Chrome 67.0.3396.99,,2018-07-04 12:38:39,2018-07-04 12:38:43,"3,451s",PASSED
click,Chrome 67.0.3396.99,,2018-07-04 12:38:43,2018-07-04 12:38:43,"0,311s",PASSED
callTestCase,Chrome 67.0.3396.99,,2018-07-04 12:38:43,2018-07-04 12:38:44,"1,447s",PASSED
,,,,,,
Test Cases/GIVEN/Home Page/2_Body/3_Click_Products_On_Sale,Chrome 67.0.3396.99,,2018-07-04 12:38:44,2018-07-04 12:38:49,"4,183s",PASSED
click,Chrome 67.0.3396.99,,2018-07-04 12:38:45,2018-07-04 12:38:46,"1,507s",PASSED
click,Chrome 67.0.3396.99,,2018-07-04 12:38:46,2018-07-04 12:38:47,"0,621s",PASSED
callTestCase,Chrome 67.0.3396.99,,2018-07-04 12:38:47,2018-07-04 12:38:49,"1,764s",PASSED
,,,,,,
Test Cases/GIVEN/Home Page/2_Body/4_Click_Organic_Products,Chrome 67.0.3396.99,,2018-07-04 12:38:49,2018-07-04 12:38:54,"5,455s",PASSED
click,Chrome 67.0.3396.99,,2018-07-04 12:38:49,2018-07-04 12:38:52,"2,674s",PASSED
click,Chrome 67.0.3396.99,,2018-07-04 12:38:52,2018-07-04 12:38:53,"1,046s",PASSED
callTestCase,Chrome 67.0.3396.99,,2018-07-04 12:38:53,2018-07-04 12:38:54,"1,454s",PASSED
,,,,,,
Test Cases/GIVEN/Home Page/2_Body/5_Click_New_Products,Chrome 67.0.3396.99,,2018-07-04 12:38:54,2018-07-04 12:38:58,"3,983s",PASSED
click,Chrome 67.0.3396.99,,2018-07-04 12:38:54,2018-07-04 12:38:56,"1,988s",PASSED
click,Chrome 67.0.3396.99,,2018-07-04 12:38:56,2018-07-04 12:38:57,"0,632s",PASSED
callTestCase,Chrome 67.0.3396.99,,2018-07-04 12:38:57,2018-07-04 12:38:58,"1,103s",PASSED
,,,,,,
Test Cases/GIVEN/Home Page/2_Body/6_Click_Yellow_Coupons,Chrome 67.0.3396.99,,2018-07-04 12:38:58,2018-07-04 12:39:00,"1,601s",FAILED
click,Chrome 67.0.3396.99,,2018-07-04 12:38:58,2018-07-04 12:39:00,"1,342s",FAILED
,,,,,,
Test Cases/GIVEN/Home Page/2_Body/7_Click_Gluten_Free_Products,Chrome 67.0.3396.99,,2018-07-04 12:39:00,2018-07-04 12:39:04,"4,063s",PASSED
click,Chrome 67.0.3396.99,,2018-07-04 12:39:00,2018-07-04 12:39:01,"1,605s",PASSED
click,Chrome 67.0.3396.99,,2018-07-04 12:39:01,2018-07-04 12:39:02,"0,963s",PASSED
callTestCase,Chrome 67.0.3396.99,,2018-07-04 12:39:02,2018-07-04 12:39:04,"1,339s",PASSED
,,,,,,
Test Cases/GIVEN/Home Page/2_Body/8_Click_Previously_Purshased,Chrome 67.0.3396.99,,2018-07-04 12:39:04,2018-07-04 12:39:06,"1,820s",FAILED
click,Chrome 67.0.3396.99,,2018-07-04 12:39:04,2018-07-04 12:39:05,"0,691s",PASSED
click,Chrome 67.0.3396.99,,2018-07-04 12:39:05,2018-07-04 12:39:06,"0,943s",FAILED
,,,,,,
Test Cases/GIVEN/Home Page/2_Body/9_Click_Local_Products,Chrome 67.0.3396.99,,2018-07-04 12:39:06,2018-07-04 12:39:12,"6,217s",PASSED
click,Chrome 67.0.3396.99,,2018-07-04 12:39:06,2018-07-04 12:39:09,"3,610s",PASSED
click,Chrome 67.0.3396.99,,2018-07-04 12:39:09,2018-07-04 12:39:10,"0,981s",PASSED
callTestCase,Chrome 67.0.3396.99,,2018-07-04 12:39:10,2018-07-04 12:39:12,"1,422s",PASSED
