Suite/Test/Step Name,Browser,Description,Start time,End time,Duration,Status
2_Checking Body,Chrome 67.0.3396.99,,2018-07-04 17:41:50,2018-07-04 17:42:56,"1m - 6,839s",PASSED
,,,,,,
Test Cases/GIVEN/1_Open_Index,Chrome 67.0.3396.99,,2018-07-04 17:41:50,2018-07-04 17:42:00,"10,257s",PASSED
openBrowser,Chrome 67.0.3396.99,,2018-07-04 17:41:51,2018-07-04 17:41:54,"3,243s",PASSED
maximizeWindow,Chrome 67.0.3396.99,,2018-07-04 17:41:54,2018-07-04 17:41:54,"0,243s",PASSED
navigateToUrl,Chrome 67.0.3396.99,,2018-07-04 17:41:54,2018-07-04 17:42:00,"6,382s",PASSED
,,,,,,
Test Cases/GIVEN/2_ Store_Select,Chrome 67.0.3396.99,,2018-07-04 17:42:00,2018-07-04 17:42:06,"5,415s",PASSED
click,Chrome 67.0.3396.99,,2018-07-04 17:42:01,2018-07-04 17:42:05,"4,619s",PASSED
waitForElementPresent,Chrome 67.0.3396.99,,2018-07-04 17:42:05,2018-07-04 17:42:06,"0,579s",PASSED
,,,,,,
Test Cases/GIVEN/Home Page/2_Body/1_Click_Banners,Chrome 67.0.3396.99,,2018-07-04 17:42:06,2018-07-04 17:42:12,"6,170s",PASSED
click,Chrome 67.0.3396.99,Household Essentials,2018-07-04 17:42:06,2018-07-04 17:42:07,"0,338s",PASSED
click,Chrome 67.0.3396.99,,2018-07-04 17:42:07,2018-07-04 17:42:09,"2,825s",PASSED
verifyTextPresent,Chrome 67.0.3396.99,,2018-07-04 17:42:09,2018-07-04 17:42:10,"0,926s",PASSED
callTestCase,Chrome 67.0.3396.99,,2018-07-04 17:42:10,2018-07-04 17:42:12,"1,643s",PASSED
,,,,,,
Test Cases/GIVEN/Home Page/2_Body/2_Click_Explore_More,Chrome 67.0.3396.99,,2018-07-04 17:42:12,2018-07-04 17:42:18,"5,755s",PASSED
click,Chrome 67.0.3396.99,,2018-07-04 17:42:12,2018-07-04 17:42:15,"2,535s",PASSED
verifyTextPresent,Chrome 67.0.3396.99,,2018-07-04 17:42:15,2018-07-04 17:42:16,"0,643s",PASSED
callTestCase,Chrome 67.0.3396.99,,2018-07-04 17:42:16,2018-07-04 17:42:18,"2,222s",PASSED
,,,,,,
Test Cases/GIVEN/Home Page/2_Body/3_Click_Products_On_Sale,Chrome 67.0.3396.99,,2018-07-04 17:42:18,2018-07-04 17:42:24,"5,926s",PASSED
delay,Chrome 67.0.3396.99,,2018-07-04 17:42:18,2018-07-04 17:42:20,"2,008s",PASSED
click,Chrome 67.0.3396.99,,2018-07-04 17:42:20,2018-07-04 17:42:21,"1,333s",PASSED
verifyTextPresent,Chrome 67.0.3396.99,,2018-07-04 17:42:21,2018-07-04 17:42:22,"0,497s",PASSED
callTestCase,Chrome 67.0.3396.99,,2018-07-04 17:42:22,2018-07-04 17:42:24,"1,735s",PASSED
,,,,,,
Test Cases/GIVEN/Home Page/2_Body/4_Click_Organic_Products,Chrome 67.0.3396.99,,2018-07-04 17:42:24,2018-07-04 17:42:31,"7,569s",PASSED
delay,Chrome 67.0.3396.99,,2018-07-04 17:42:24,2018-07-04 17:42:26,"2,002s",PASSED
click,Chrome 67.0.3396.99,,2018-07-04 17:42:26,2018-07-04 17:42:28,"1,492s",PASSED
verifyTextPresent,Chrome 67.0.3396.99,,2018-07-04 17:42:28,2018-07-04 17:42:29,"1,483s",PASSED
callTestCase,Chrome 67.0.3396.99,,2018-07-04 17:42:29,2018-07-04 17:42:31,"2,213s",PASSED
,,,,,,
Test Cases/GIVEN/Home Page/2_Body/5_Click_New_Products,Chrome 67.0.3396.99,,2018-07-04 17:42:31,2018-07-04 17:42:36,"4,424s",PASSED
click,Chrome 67.0.3396.99,,2018-07-04 17:42:32,2018-07-04 17:42:34,"2,548s",PASSED
verifyTextPresent,Chrome 67.0.3396.99,,2018-07-04 17:42:34,2018-07-04 17:42:35,"0,326s",PASSED
callTestCase,Chrome 67.0.3396.99,,2018-07-04 17:42:35,2018-07-04 17:42:36,"1,154s",PASSED
,,,,,,
Test Cases/GIVEN/Home Page/2_Body/6_Click_Yellow_Coupons,Chrome 67.0.3396.99,,2018-07-04 17:42:36,2018-07-04 17:42:40,"4,722s",PASSED
click,Chrome 67.0.3396.99,,2018-07-04 17:42:36,2018-07-04 17:42:38,"1,535s",PASSED
verifyTextPresent,Chrome 67.0.3396.99,,2018-07-04 17:42:38,2018-07-04 17:42:39,"0,736s",PASSED
callTestCase,Chrome 67.0.3396.99,,2018-07-04 17:42:39,2018-07-04 17:42:40,"1,734s",PASSED
,,,,,,
Test Cases/GIVEN/Home Page/2_Body/7_Click_Gluten_Free_Products,Chrome 67.0.3396.99,,2018-07-04 17:42:40,2018-07-04 17:42:46,"5,728s",PASSED
click,Chrome 67.0.3396.99,,2018-07-04 17:42:41,2018-07-04 17:42:44,"2,946s",PASSED
verifyTextPresent,Chrome 67.0.3396.99,,2018-07-04 17:42:44,2018-07-04 17:42:45,"0,960s",PASSED
callTestCase,Chrome 67.0.3396.99,,2018-07-04 17:42:45,2018-07-04 17:42:46,"1,403s",PASSED
,,,,,,
Test Cases/GIVEN/Home Page/2_Body/8_Click_Previously_Purshased,Chrome 67.0.3396.99,,2018-07-04 17:42:46,2018-07-04 17:42:50,"3,437s",PASSED
click,Chrome 67.0.3396.99,,2018-07-04 17:42:46,2018-07-04 17:42:47,"0,898s",PASSED
delay,Chrome 67.0.3396.99,,2018-07-04 17:42:47,2018-07-04 17:42:49,"2,003s",PASSED
verifyElementPresent,Chrome 67.0.3396.99,,2018-07-04 17:42:49,2018-07-04 17:42:49,"0,116s",PASSED
click,Chrome 67.0.3396.99,,2018-07-04 17:42:49,2018-07-04 17:42:50,"0,115s",PASSED
,,,,,,
Test Cases/GIVEN/Home Page/2_Body/9_Click_Local_Products,Chrome 67.0.3396.99,,2018-07-04 17:42:50,2018-07-04 17:42:55,"5,729s",PASSED
click,Chrome 67.0.3396.99,,2018-07-04 17:42:50,2018-07-04 17:42:52,"1,961s",PASSED
verifyTextPresent,Chrome 67.0.3396.99,,2018-07-04 17:42:52,2018-07-04 17:42:53,"1,500s",PASSED
callTestCase,Chrome 67.0.3396.99,,2018-07-04 17:42:53,2018-07-04 17:42:55,"1,978s",PASSED
